<svg xmlns="http://www.w3.org/2000/svg" viewBox="0 0 38 36">
    <defs>
        <style>
            .cls-1{fill:#fff;opacity:.5}.cls-2{fill:rgba(0,0,0,0);stroke:#000;stroke-linecap:round;stroke-linejoin:round;stroke-width:1.5px}
        </style>
    </defs>
    <g id="right_arrow" transform="translate(-337 -4448)">
        <path id="Rectangle_609" d="M0 0h38v36H0z" class="cls-1" data-name="Rectangle 609" transform="translate(337 4448)"/>
        <g id="Icon_Arrow-Left" transform="rotate(180 180 2237)">
            <path id="Shape" d="M8 16L0 8l8-8" class="cls-2"/>
        </g>
    </g>
</svg>
