<?xml version="1.0" encoding="utf-8"?>
<!-- Generator: Adobe Illustrator 23.0.0, SVG Export Plug-In . SVG Version: 6.00 Build 0)  -->
<svg version="1.1" id="Layer_1" xmlns="http://www.w3.org/2000/svg" xmlns:xlink="http://www.w3.org/1999/xlink" x="0px" y="0px"
	 viewBox="0 0 114 114" style="enable-background:new 0 0 114 114;" xml:space="preserve">
<style type="text/css">
	.st0{fill:#F6F6F6;}
</style>
<circle id="Ellipse_155" class="st0" cx="57.3" cy="57.3" r="55.6"/>
<g>
	<path d="M56.3,52.6h-2.2v0.1c-2.2-3-11.5-9.1-20.2-9.1c-10,0-12.7,8.8-12.6,12.4c0,2.4,3.1,14.5,17.5,14.1
		c12.6-0.3,15.2-11,15.6-15h1.9V52.6z"/>
	<path d="M58.5,52.6h2.6v0.1c2.2-3,11.4-9.1,20.1-9.1c10,0,12.6,8.8,12.6,12.4c0,2.4-3.1,14.5-17.5,14.1c-12.6-0.3-15.2-11-15.6-15
		h-2.2V52.6z"/>
	<rect x="56.8" y="51.8" width="1.3" height="4.4"/>
</g>
</svg>
