<svg xmlns="http://www.w3.org/2000/svg" width="100.358" height="107.805" viewBox="0 0 100.358 107.805">
    <defs>
        <style>
            .cls-1{fill:none;stroke:#000;stroke-linecap:round;stroke-miterlimit:10;stroke-width:3px}
        </style>
    </defs>
    <g id="_1" data-name="1" transform="translate(-92.502 -766.828)">
        <g id="Group_2952" data-name="Group 2952">
            <path id="Path_5575" d="M2066.514 843.166a52.031 52.031 0 0 0-20.6 7.987l.893 1.354a50.829 50.829 0 1 1-3.91 82.025l-1.017 1.264a52.444 52.444 0 1 0 24.632-92.63z" data-name="Path 5575" transform="rotate(-2 -1009.842 56157.687)"/>
            <path id="_002-hair-brush" d="M2035.508 959.148a.983.983 0 0 0-.792 1.142l.759 4.034a4.088 4.088 0 0 0-1.506 3.2v4.935a4.085 4.085 0 0 0 1.507 3.2l-.742 4.034a.981.981 0 0 0 1.931.352l.642-3.513a4.122 4.122 0 0 0 .743.093h2.822v3.195a.983.983 0 1 0 1.967 0v-3.195h2.822v3.195a.983.983 0 1 0 1.966 0v-3.195h2.822v3.195a.983.983 0 0 0 1.967 0v-3.2h2.822v3.195a.983.983 0 0 0 1.967 0v-3.2h2.95v3.195a.983.983 0 0 0 1.966 0v-3.2h2.435a4.145 4.145 0 0 0 .855-.115l.647 3.549a.983.983 0 0 0 1.95-.184 1 1 0 0 0-.016-.178l-.743-4.132a4.158 4.158 0 0 0 1.381-2.5h2.323v1.808a.986.986 0 0 0 .95 1.019h18.183a5.9 5.9 0 0 0 0-11.8h-18.182a.986.986 0 0 0-.951 1.019v1.808h-2.344a4.16 4.16 0 0 0-1.381-2.5l.743-4.126a1.018 1.018 0 0 0 .017-.18.983.983 0 0 0-1.95-.177l-.648 3.535a4.15 4.15 0 0 0-.855-.116h-2.427v-3.194a.983.983 0 0 0-1.967 0v3.2h-2.95v-3.194a.983.983 0 0 0-1.967 0v3.2h-2.824v-3.194a.983.983 0 1 0-1.966 0v3.194h-2.822v-3.194a.983.983 0 1 0-1.966 0v3.194h-2.822v-3.194a.983.983 0 1 0-1.966 0v3.194h-2.822a4.111 4.111 0 0 0-.743.093l-.643-3.527a.974.974 0 0 0-1.136-.779h-.008zm58.475 10.843a3.932 3.932 0 0 1-3.9 3.932h-1.309v-7.865h1.314a3.931 3.931 0 0 1 3.892 3.937zm-7.177-3.932v7.865h-13.885v-7.865zm-15.853 5.042h-2.334v-2.206h2.334zm-32.92-5.771h2.822v1.475a.983.983 0 1 0 1.967 0v-1.475h2.823v1.475a.983.983 0 1 0 1.967 0v-1.475h2.822v1.475a.983.983 0 0 0 1.967 0v-1.475h2.822v1.475a.983.983 0 0 0 1.966 0v-1.475h2.95v1.475a.983.983 0 0 0 1.967 0v-1.475h2.434a2.115 2.115 0 0 1 .5.086l-.205 1.14a.99.99 0 0 0 .792 1.15.955.955 0 0 0 1.017-.489 2.08 2.08 0 0 1 0 .312v4.93a2.023 2.023 0 0 1 0 .308.969.969 0 0 0-1.026-.492.981.981 0 0 0-.786 1.143l.208 1.154a2.147 2.147 0 0 1-.5.086h-2.434v-1.475a.983.983 0 0 0-1.967 0v1.475h-2.95v-1.475a.983.983 0 0 0-1.967 0v1.475h-2.822v-1.475a.983.983 0 1 0-1.966 0v1.475h-2.822v-1.475a.983.983 0 0 0-1.966 0v1.475h-2.822v-1.475a.983.983 0 0 0-1.966 0v1.475h-2.822a2.21 2.21 0 0 1-.388-.061l.209-1.166a1.046 1.046 0 0 0 .016-.183.986.986 0 0 0-.808-.97.955.955 0 0 0-1.093.688 2.153 2.153 0 0 1-.037-.507v-4.94a2.134 2.134 0 0 1 .037-.505.973.973 0 0 0 1.907-.278.96.96 0 0 0-.02-.177l-.211-1.179a2.125 2.125 0 0 1 .387-.05z" data-name="002-hair-brush" transform="translate(-1939.672 -125.837)"/>
            <path id="Path_5577" d="M2037.645 883.391c11.046 14.8-13.589 21.68 0 34.5" class="cls-1" data-name="Path 5577" transform="translate(-1939.436 -91.316)"/>
            <path id="Path_5578" d="M2059.81 873.757c11.045 17.1-13.589 25.055 0 39.867" class="cls-1" data-name="Path 5578" transform="translate(-1949.246 -87.052)"/>
            <path id="Path_5579" d="M2082.107 883.391c11.045 14.8-13.589 21.68 0 34.5" class="cls-1" data-name="Path 5579" transform="translate(-1959.115 -91.316)"/>
        </g>
        <path id="Path_5596" d="M26.438 0H2.129v-5.264l11.2-11.771q4.139-4.713 4.139-7.489a5.209 5.209 0 0 0-.981-3.421 3.5 3.5 0 0 0-2.847-1.172 3.546 3.546 0 0 0-2.991 1.567A6.441 6.441 0 0 0 9.5-23.639H1.412a11.44 11.44 0 0 1 1.6-5.922 11.241 11.241 0 0 1 4.45-4.247 13.219 13.219 0 0 1 6.364-1.531q5.646 0 8.7 2.608t3.051 7.489a10.875 10.875 0 0 1-.766 4.008 17.575 17.575 0 0 1-2.381 4.091 59.968 59.968 0 0 1-5.2 5.73l-4.5 5.192h13.708z" data-name="Path 5596" transform="translate(141 826)"/>
    </g>
</svg>
