<svg xmlns="http://www.w3.org/2000/svg" id="american_ex" width="46.609" height="29.811" viewBox="0 0 46.609 29.811">
    <defs>
        <style>
            .cls-1,.cls-3{fill:#fff}.cls-1{stroke:#707070;stroke-width:.2px}.cls-2{fill:#016fd0}.cls-4{stroke:none}.cls-5{fill:none}
        </style>
    </defs>
    <g id="Group_2925" data-name="Group 2925">
        <g id="Rectangle_427" class="cls-1" data-name="Rectangle 427">
            <rect width="46.609" height="29.81" class="cls-4" rx="2"/>
            <rect width="46.409" height="29.61" x=".1" y=".1" class="cls-5" rx="1.9"/>
        </g>
        <g id="Group_2835" data-name="Group 2835" transform="translate(1.475 8.412)">
            <path id="path3082" d="M249.14 1547.664v-6.833h7.235l.776 1.012.8-1.012h26.262v6.362a3.034 3.034 0 0 1-1.481.472h-14.54l-.875-1.077v1.077h-2.868v-1.839a2.41 2.41 0 0 1-1.239.256h-.976v1.582h-4.342l-.775-1.033-.787 1.033z" class="cls-2" transform="translate(-240.219 -1531.877)"/>
            <path id="path3080" d="M55.5 1339.427l1.651-3.8H60l.937 2.13v-2.13h3.553l.558 1.54.541-1.54h15.927v.774a3.458 3.458 0 0 1 2.213-.774l5.168.018.921 2.1v-2.12h2.969l.817 1.208v-1.208h3v6.833h-3l-.783-1.212v1.212h-4.362l-.439-1.077h-1.173l-.432 1.077h-2.958a2.94 2.94 0 0 1-1.941-.758v.758h-4.461l-.885-1.077v1.077H59.582l-.438-1.077h-1.17l-.435 1.077H55.5z" class="cls-2" transform="translate(-55.5 -1335.623)"/>
            <path id="path3046" d="M57.893 1354.93l-2.2 5.117h1.433l.406-1.025h2.361l.4 1.025h1.467l-2.2-5.117h-1.667zm.814 1.191l.72 1.791h-1.441z" class="cls-3" transform="translate(-55.684 -1354.088)"/>
            <path id="path3048" d="M198.223 1360.022v-5.116l2.036.008 1.184 3.3 1.156-3.306h2.02v5.116h-1.279v-3.77l-1.356 3.77h-1.122l-1.36-3.77v3.77z" class="cls-3" transform="translate(-191.996 -1354.065)"/>
            <path id="path3050" d="M364.861 1360.022v-5.116h4.174v1.145h-2.881v.875h2.814V1358h-2.814v.909h2.881v1.11z" class="cls-3" transform="translate(-351.201 -1354.065)"/>
            <path id="path3052" d="M477.5 1354.93v5.116h1.279v-1.817h.538l1.534 1.817h1.563l-1.683-1.885a1.558 1.558 0 0 0 1.4-1.571 1.655 1.655 0 0 0-1.788-1.66zm1.279 1.144h1.462a.587.587 0 0 1 .606.539.578.578 0 0 1-.587.538h-1.481z" class="cls-3" transform="translate(-458.86 -1354.088)"/>
            <path id="path3054" d="M596.993 1360.022h-1.306v-5.116h1.306z" class="cls-3" transform="translate(-571.854 -1354.065)"/>
            <path id="path3056" d="M642.367 1360.022h-.282a2.254 2.254 0 0 1-2.192-2.537 2.344 2.344 0 0 1 2.542-2.579h1.414v1.212h-1.466a1.231 1.231 0 0 0-1.194 1.38 1.253 1.253 0 0 0 1.38 1.407h.336z" class="cls-3" transform="translate(-614.09 -1354.064)"/>
            <path id="path3058" d="M712.153 1354.93l-2.2 5.117h1.433l.406-1.025h2.361l.4 1.025h1.464l-2.2-5.117zm.814 1.191l.719 1.791h-1.441z" class="cls-3" transform="translate(-681.037 -1354.088)"/>
            <path id="path3060" d="M852.433 1360.022v-5.116h1.626l2.077 3.215v-3.215h1.279v5.116h-1.574l-2.129-3.3v3.3z" class="cls-3" transform="translate(-817.188 -1354.065)"/>
            <path id="path3062" d="M269.2 1565.242v-5.117h4.174v1.145h-2.881v.875h2.807v1.077h-2.814v.908h2.881v1.111z" class="cls-3" transform="translate(-259.762 -1550.33)"/>
            <path id="path3064" d="M737.947 1565.242v-5.117h4.174v1.145h-2.881v.875h2.8v1.077h-2.8v.908h2.881v1.111z" class="cls-3" transform="translate(-707.814 -1550.33)"/>
            <path id="path3066" d="M367.513 1565.242l2.032-2.526-2.081-2.59h1.612l1.239 1.6 1.243-1.6h1.548l-2.053 2.558 2.036 2.558h-1.611l-1.2-1.575-1.174 1.575z" class="cls-3" transform="translate(-353.684 -1550.33)"/>
            <path id="path3068" d="M499.869 1560.14v5.116h1.313v-1.616h1.346a1.769 1.769 0 0 0 2-1.78 1.684 1.684 0 0 0-1.837-1.721zm1.313 1.157h1.418a.578.578 0 0 1 .631.589.59.59 0 0 1-.635.589h-1.414z" class="cls-3" transform="translate(-480.245 -1550.344)"/>
            <path id="path3072" d="M619.448 1560.12v5.116h1.279v-1.818h.538l1.534 1.818h1.563l-1.683-1.885a1.558 1.558 0 0 0 1.4-1.572 1.655 1.655 0 0 0-1.788-1.66zm1.279 1.144h1.462a.587.587 0 0 1 .606.539.578.578 0 0 1-.587.539h-1.481z" class="cls-3" transform="translate(-594.541 -1550.324)"/>
            <path id="path3074" d="M843.627 1565.242v-1.111h2.56c.379 0 .543-.2.543-.429s-.163-.432-.543-.432h-1.157a1.431 1.431 0 0 1-1.566-1.533c0-.82.513-1.611 2.007-1.611h2.491l-.539 1.151h-2.153c-.412 0-.539.216-.539.422a.446.446 0 0 0 .471.446h1.212a1.4 1.4 0 0 1 1.607 1.468 1.534 1.534 0 0 1-1.668 1.629z" class="cls-3" transform="translate(-808.611 -1550.33)"/>
            <path id="path3076" d="M951.224 1565.242v-1.111h2.56c.379 0 .543-.2.543-.429s-.164-.432-.543-.432h-1.157a1.431 1.431 0 0 1-1.566-1.533c0-.82.513-1.611 2.007-1.611h2.491l-.538 1.151h-2.154c-.412 0-.539.216-.539.422a.446.446 0 0 0 .471.446h1.212a1.4 1.4 0 0 1 1.607 1.468 1.534 1.534 0 0 1-1.668 1.629z" class="cls-3" transform="translate(-911.513 -1550.33)"/>
        </g>
    </g>
</svg>
