<svg xmlns="http://www.w3.org/2000/svg" width="16.184" height="29.935" viewBox="0 0 16.184 29.935">
    <defs>
        <style>
            .cls-1{fill:#fff}
        </style>
    </defs>
    <g id="facebook-logo" transform="translate(-22.077)">
        <path id="Path_20" d="M37.651.006L33.77 0c-4.361 0-7.18 2.891-7.18 7.367v3.4h-3.9a.61.61 0 0 0-.61.611V16.3a.61.61 0 0 0 .61.61h3.9v12.414a.61.61 0 0 0 .61.61h5.092a.61.61 0 0 0 .61-.61V16.906h4.563a.61.61 0 0 0 .61-.61v-4.921a.611.611 0 0 0-.611-.611H32.9v-2.88c0-1.384.33-2.086 2.133-2.086h2.615a.61.61 0 0 0 .61-.61V.617a.611.611 0 0 0-.607-.611z" class="cls-1" data-name="Path 20"/>
    </g>
</svg>
