<svg xmlns="http://www.w3.org/2000/svg" width="87.397" height="42.236" viewBox="0 0 87.397 42.236">
    <defs>
        <style>
            .cls-1{fill:#fff}
        </style>
    </defs>
    <path id="FRILLA_white" d="M36.612-33.7a8.116 8.116 0 0 0-5.049-2.4 21.116 21.116 0 0 0-6.885.351 5.193 5.193 0 0 1-.405 1.026 8.2 8.2 0 0 1-.891 1.35 82.417 82.417 0 0 0-5.454 8.289q-2.538 4.4-4.7 8.883 1.512 0 2.97-.054t3.051-.243q1.593-.189 3.429-.567t4.212-.972q.648-.162.918.189a1.058 1.058 0 0 1 .162.891 1.959 1.959 0 0 1-.621 1.026 2.77 2.77 0 0 1-1.485.648l-14.092 2.215q-1.3 2.97-2.349 5.832T7.56-1.782A7.567 7.567 0 0 1 6.345.756a4.849 4.849 0 0 1-1.512 1.4.974.974 0 0 1-1.161 0q-.432-.374-.216-1.67.644-3.564 1.512-6.777t1.944-6.129l-2.43.27q-1.08.108-1.107-.621a2.844 2.844 0 0 1 .594-1.647 5.776 5.776 0 0 1 1.731-1.62 3.54 3.54 0 0 1 2.4-.54.376.376 0 0 1 .162.027.376.376 0 0 0 .162.027 91.717 91.717 0 0 1 4.617-9.558q2.349-4.158 4.077-7.074l.162-.27a47 47 0 0 0-6.075 3.105A36.168 36.168 0 0 0 6.183-26.7a16.368 16.368 0 0 0-3.267 3.726 4.636 4.636 0 0 0-.81 3.375 7.064 7.064 0 0 1-1.647-5.268 9.784 9.784 0 0 1 2.3-4.968 20.9 20.9 0 0 1 5.1-4.32 38.55 38.55 0 0 1 6.8-3.348 38.829 38.829 0 0 1 7.4-2 24.2 24.2 0 0 1 6.858-.243 11.637 11.637 0 0 1 5.211 1.809 5.787 5.787 0 0 1 2.484 4.237zm-1.458 23.6a4.139 4.139 0 0 1 1.215-1.107 1.26 1.26 0 0 1 .918-.189q.351.108.351.594a2.871 2.871 0 0 1-.54 1.35 19.91 19.91 0 0 1-1.944 2.43 42.817 42.817 0 0 1-3.132 3.132 26.976 26.976 0 0 1-3.537 2.727A6.108 6.108 0 0 1 25.326 0q-1.242 0-1.674-1.458a7.4 7.4 0 0 1 .216-3.888 24.577 24.577 0 0 1 2.457-5.616 38.3 38.3 0 0 1 5-6.7 6.118 6.118 0 0 1-1.4.054 10.986 10.986 0 0 1-1.458-.216q-.918 1.782-2.268 4.05a39.89 39.89 0 0 1-2.97 4.32 4.03 4.03 0 0 1-1.4 1.269.916.916 0 0 1-.891.027.772.772 0 0 1-.243-.756 2.3 2.3 0 0 1 .594-1.188 36.574 36.574 0 0 0 3.213-4.455q1.323-2.187 2.133-3.861a2.855 2.855 0 0 1-1.674-2.214 4.728 4.728 0 0 1 .459-2.673 5.175 5.175 0 0 1 1.782-2.052 2.4 2.4 0 0 1 2.3-.351 1.983 1.983 0 0 1 1.134.81 2.316 2.316 0 0 1 .324 1.215 4.259 4.259 0 0 1-.27 1.431 10.567 10.567 0 0 1-.648 1.458 1.231 1.231 0 0 0 .837.432 4.381 4.381 0 0 0 1.08-.027 4.8 4.8 0 0 0 1.107-.3q.54-.216.864-.378a.7.7 0 0 1 .486.108 2.76 2.76 0 0 1 .621.432 2.194 2.194 0 0 1 .459.567q.162.3 0 .459a15.565 15.565 0 0 0-1.62 1.971q-.864 1.215-1.7 2.619t-1.539 2.835q-.7 1.431-1.188 2.673a11.639 11.639 0 0 0-.648 2.16q-.162.918.162 1.242.27.27 1.026-.027a8.766 8.766 0 0 0 1.7-.945 19.444 19.444 0 0 0 1.89-1.485 13.474 13.474 0 0 0 1.575-1.642zm9.936 0a3.98 3.98 0 0 1 1.242-1.107 1.339 1.339 0 0 1 .945-.189q.351.108.351.594a2.871 2.871 0 0 1-.54 1.35 19.91 19.91 0 0 1-1.944 2.43 40.037 40.037 0 0 1-3.159 3.132 28.437 28.437 0 0 1-3.564 2.727A6.108 6.108 0 0 1 35.262 0a1.332 1.332 0 0 1-1.3-1 6.792 6.792 0 0 1-.3-2.673 19.579 19.579 0 0 1 .621-3.807 27.984 27.984 0 0 1 1.539-4.4 31.735 31.735 0 0 1 2.457-4.509 25.108 25.108 0 0 1 3.294-4.077 1.625 1.625 0 0 1 1.188-.405 3.78 3.78 0 0 1 1.3.27 2.357 2.357 0 0 1 .918.621q.324.378 0 .648-.54.486-1.215 1.161t-1.35 1.485q-.675.81-1.3 1.674a14.9 14.9 0 0 0-1.053 1.674 21.437 21.437 0 0 0-1.107 2.484 12.035 12.035 0 0 0-.621 2.268 5.107 5.107 0 0 0-.027 1.728 1.009 1.009 0 0 0 .621.864 1.86 1.86 0 0 0 1.134-.216 10.426 10.426 0 0 0 1.647-.918 19.281 19.281 0 0 0 1.809-1.377A11.808 11.808 0 0 0 45.09-10.1zm3.888-14.2a4.237 4.237 0 0 1-2.241 1.323 2.121 2.121 0 0 1-1.971-.459 2.044 2.044 0 0 1-.486-1.917 4.47 4.47 0 0 1 1.242-2.295 4.237 4.237 0 0 1 2.241-1.323 2.121 2.121 0 0 1 1.971.459 2.044 2.044 0 0 1 .486 1.912 4.47 4.47 0 0 1-1.242 2.3zM46.116-.162q-1.3 0-1.7-1.7a12.833 12.833 0 0 1-.054-4.455 39.794 39.794 0 0 1 1.377-6.21 56.733 56.733 0 0 1 2.592-6.966 49 49 0 0 1 2.322-4.671q1.3-2.295 2.727-4.347a37.844 37.844 0 0 1 2.916-3.7 18.115 18.115 0 0 1 2.889-2.646 7.325 7.325 0 0 1 2.673-1.269 2.851 2.851 0 0 1 2.295.432q1.35.972.513 3.456a24.832 24.832 0 0 1-3.132 5.832 84.241 84.241 0 0 1-5.7 7.29q-3.4 3.942-7.128 7.83a9.471 9.471 0 0 0-.216 4.158q.378 1.4 1.08 1.512a2.427 2.427 0 0 0 1.19-.324 13.761 13.761 0 0 0 1.782-1.026 17.731 17.731 0 0 0 1.917-1.485 13.474 13.474 0 0 0 1.593-1.649 3.98 3.98 0 0 1 1.242-1.107 1.339 1.339 0 0 1 .945-.189q.351.108.351.594a2.871 2.871 0 0 1-.54 1.35 17.28 17.28 0 0 1-2 2.4q-1.458 1.539-3.24 3.078A29.41 29.41 0 0 1 49.221-1.3a6.153 6.153 0 0 1-3.105 1.138zm5.022-18.9q-.54 1.188-.972 2.295a18.082 18.082 0 0 0-.7 2.187q1.944-2.322 3.915-4.752t3.51-4.7a32.234 32.234 0 0 0 2.482-4.268 7.853 7.853 0 0 0 .891-3.564 4.558 4.558 0 0 0-2.079 1.3 19.47 19.47 0 0 0-2.3 2.781 41.227 41.227 0 0 0-2.4 3.942q-1.213 2.241-2.347 4.779zm5.94 18.9q-1.3 0-1.7-1.7a12.833 12.833 0 0 1-.054-4.455 39.794 39.794 0 0 1 1.377-6.21 56.733 56.733 0 0 1 2.592-6.966 49 49 0 0 1 2.322-4.671q1.3-2.295 2.727-4.347a37.845 37.845 0 0 1 2.916-3.7 18.115 18.115 0 0 1 2.889-2.646 7.325 7.325 0 0 1 2.673-1.269 2.851 2.851 0 0 1 2.295.432q1.35.972.513 3.456a24.832 24.832 0 0 1-3.128 5.832 84.241 84.241 0 0 1-5.7 7.29q-3.4 3.942-7.128 7.83a9.471 9.471 0 0 0-.216 4.158q.378 1.4 1.08 1.512a2.427 2.427 0 0 0 1.188-.324A13.761 13.761 0 0 0 63.5-6.966a17.731 17.731 0 0 0 1.917-1.485 13.474 13.474 0 0 0 1.597-1.649 3.98 3.98 0 0 1 1.242-1.107 1.339 1.339 0 0 1 .945-.189q.351.108.351.594a2.871 2.871 0 0 1-.54 1.35 17.28 17.28 0 0 1-2 2.4q-1.458 1.539-3.24 3.078A29.41 29.41 0 0 1 60.183-1.3a6.153 6.153 0 0 1-3.105 1.138zm5.022-18.9q-.54 1.188-.972 2.295a18.082 18.082 0 0 0-.7 2.187q1.944-2.322 3.915-4.752t3.51-4.7a32.234 32.234 0 0 0 2.482-4.268 7.853 7.853 0 0 0 .891-3.564 4.558 4.558 0 0 0-2.079 1.3 19.47 19.47 0 0 0-2.295 2.781 41.226 41.226 0 0 0-2.4 3.942Q63.234-21.6 62.1-19.062zM85.32-10.1a4.139 4.139 0 0 1 1.215-1.107 1.26 1.26 0 0 1 .918-.189q.351.108.351.594a2.871 2.871 0 0 1-.54 1.35A19.91 19.91 0 0 1 85.32-7.02a42.816 42.816 0 0 1-3.132 3.132 26.976 26.976 0 0 1-3.537 2.727A6.108 6.108 0 0 1 75.492 0q-1.026 0-1.161-1.728a11.726 11.726 0 0 1 .621-4.212q-1.134 1.3-2.376 2.511A25.779 25.779 0 0 1 70.2-1.35a10.4 10.4 0 0 1-2.133 1.3 1.929 1.929 0 0 1-1.647.104 2.175 2.175 0 0 1-1.026-1.809 11.077 11.077 0 0 1 .108-3.4 22.108 22.108 0 0 1 1.215-4.295 27.917 27.917 0 0 1 2.241-4.536 25.89 25.89 0 0 1 2.808-3.726A18.057 18.057 0 0 1 75.06-20.6a11.924 11.924 0 0 1 3.51-1.647 5.754 5.754 0 0 1 3.4.054 2.973 2.973 0 0 1 1.944 1.647 3.245 3.245 0 0 1 .162 2.241 3.39 3.39 0 0 1-1.269 1.782 2.52 2.52 0 0 1-2.295.324 4.231 4.231 0 0 0 0-1.35 1.021 1.021 0 0 0-.756-.81 2.665 2.665 0 0 0-1.782.081A7.953 7.953 0 0 0 76-17.2a12.65 12.65 0 0 0-1.944 1.782 21.4 21.4 0 0 0-1.755 2.241 15.794 15.794 0 0 0-1.3 2.349 14.123 14.123 0 0 0-.81 2.3 6.775 6.775 0 0 0-.234 1.828 1.025 1.025 0 0 0 .459.972 1.511 1.511 0 0 0 1.323-.27A11.7 11.7 0 0 0 73.6-7.4a27.766 27.766 0 0 0 2.16-2.187q1.134-1.269 2.16-2.565l.648-.864q.324-.432.7-.864a1.072 1.072 0 0 1 .621-.216 4.384 4.384 0 0 1 .972 0 3.866 3.866 0 0 1 .891.189q.378.135.324.243-.594 1.026-1.215 2.268t-1.08 2.349A14.937 14.937 0 0 0 79.11-7.1q-.216.837 0 1.107.27.27 1.026-.027a8.766 8.766 0 0 0 1.7-.945 19.445 19.445 0 0 0 1.89-1.485 13.474 13.474 0 0 0 1.594-1.65z" class="cls-1" transform="translate(-.407 39.887)"/>
</svg>
