<svg xmlns="http://www.w3.org/2000/svg" width="21.24" height="22" viewBox="0 0 21.24 22">
    <path d="M20.916 20.039l-5.236-5.446a8.879 8.879 0 1 0-6.8 3.172 8.787 8.787 0 0 0 5.089-1.607l5.276 5.487a1.158 1.158 0 1 0 1.67-1.606zM8.882 2.317a6.565 6.565 0 1 1-6.566 6.565 6.573 6.573 0 0 1 6.566-6.565z" data-name="search (1)"/>
</svg>
