<svg xmlns="http://www.w3.org/2000/svg" width="21.501" height="25.25" viewBox="0 0 21.501 25.25">
    <path d="M21.476 6.851v-.02a28.4 28.4 0 0 1-.023-.785 2.676 2.676 0 0 0-2.52-2.622A10.384 10.384 0 0 1 11.866.446L11.849.43a1.616 1.616 0 0 0-2.2 0l-.012.016a10.385 10.385 0 0 1-7.068 2.979 2.676 2.676 0 0 0-2.52 2.622c0 .284-.012.54-.023.784v.046c-.057 2.96-.126 6.644 1.105 9.988a12.715 12.715 0 0 0 3.05 4.751 15.957 15.957 0 0 0 5.969 3.531 1.849 1.849 0 0 0 .245.067 1.807 1.807 0 0 0 .71 0 1.855 1.855 0 0 0 .246-.067 15.968 15.968 0 0 0 5.963-3.533 12.733 12.733 0 0 0 3.05-4.753c1.236-3.353 1.169-7.044 1.112-10.01zm-2.5 9.5c-1.3 3.525-3.954 5.945-8.112 7.4a.372.372 0 0 1-.047.013.332.332 0 0 1-.13 0 .369.369 0 0 1-.047-.013c-4.163-1.452-6.819-3.871-8.118-7.4-1.136-3.08-1.072-6.462-1.015-9.45v-.012c.012-.256.019-.525.024-.82a1.189 1.189 0 0 1 1.121-1.168 13 13 0 0 0 4.412-.971 11.543 11.543 0 0 0 3.6-2.416.137.137 0 0 1 .183 0 11.548 11.548 0 0 0 3.6 2.416 13 13 0 0 0 4.412.971 1.189 1.189 0 0 1 1.121 1.164c0 .3.012.565.024.82.048 2.991.111 6.375-1.029 9.464zm0 0" data-name="Path 5522"/>
    <path d="M10.751 6.333a6.293 6.293 0 1 0 6.293 6.293 6.3 6.3 0 0 0-6.293-6.293zm0 11.1a4.811 4.811 0 1 1 4.809-4.81 4.816 4.816 0 0 1-4.809 4.814zm0 0" data-name="Path 5523"/>
    <path d="M12.559 10.672l-2.923 2.923-.793-.793a.741.741 0 0 0-1.048 1.048l1.317 1.317a.741.741 0 0 0 1.048 0l3.447-3.447a.741.741 0 1 0-1.048-1.048zm0 0" data-name="Path 5524"/>
</svg>
